\babel@toc {czech}{}\relax 
\contentsline {section}{\numberline {1}O dokumentu}{2}{section.1}%
\contentsline {section}{\numberline {2}Dobré zprávy}{2}{section.2}%
\contentsline {section}{\numberline {3}Odvedená práce}{3}{section.3}%
\contentsline {subsection}{\numberline {3.1}Online hosting}{3}{subsection.3.1}%
\contentsline {subsection}{\numberline {3.2}Zobrazování na Simulátoru/Linkách}{3}{subsection.3.2}%
\contentsline {subsection}{\numberline {3.3}Generování mapy}{3}{subsection.3.3}%
\contentsline {section}{\numberline {4}Sočasný stav}{4}{section.4}%
\contentsline {section}{\numberline {5}Ukázka}{4}{section.5}%
\contentsline {section}{\numberline {6}Kód}{4}{section.6}%
