\BOOKMARK [1][-]{section.1}{\376\377\000O\000\040\000d\000o\000k\000u\000m\000e\000n\000t\000u}{}% 1
\BOOKMARK [1][-]{section.2}{\376\377\000D\000o\000b\000r\000\351\000\040\000z\000p\000r\000\341\000v\000y}{}% 2
\BOOKMARK [1][-]{section.3}{\376\377\000O\000d\000v\000e\000d\000e\000n\000\341\000\040\000p\000r\000\341\000c\000e}{}% 3
\BOOKMARK [2][-]{subsection.3.1}{\376\377\000O\000n\000l\000i\000n\000e\000\040\000h\000o\000s\000t\000i\000n\000g}{section.3}% 4
\BOOKMARK [2][-]{subsection.3.2}{\376\377\000Z\000o\000b\000r\000a\000z\000o\000v\000\341\000n\000\355\000\040\000n\000a\000\040\000S\000i\000m\000u\000l\000\341\000t\000o\000r\000u\000/\000L\000i\000n\000k\000\341\000c\000h}{section.3}% 5
\BOOKMARK [2][-]{subsection.3.3}{\376\377\000G\000e\000n\000e\000r\000o\000v\000\341\000n\000\355\000\040\000m\000a\000p\000y}{section.3}% 6
\BOOKMARK [1][-]{section.4}{\376\377\000S\000o\001\015\000a\000s\000n\000\375\000\040\000s\000t\000a\000v}{}% 7
\BOOKMARK [1][-]{section.5}{\376\377\000U\000k\000\341\000z\000k\000a}{}% 8
\BOOKMARK [1][-]{section.6}{\376\377\000K\000\363\000d}{}% 9
