\babel@toc {czech}{}\relax 
\contentsline {section}{\numberline {1}O dokumentu}{2}{section.1}%
\contentsline {section}{\numberline {2}Popis odvedené práce}{2}{section.2}%
\contentsline {subsection}{\numberline {2.1}Aplikace v Unity}{2}{subsection.2.1}%
\contentsline {subsection}{\numberline {2.2}PHP Server}{4}{subsection.2.2}%
\contentsline {subsection}{\numberline {2.3}Databáze}{4}{subsection.2.3}%
\contentsline {section}{\numberline {3}Odchylky od dokumentace}{4}{section.3}%
\contentsline {section}{\numberline {4}Odchylky od původního plánu}{5}{section.4}%
