\babel@toc {czech}{}\relax 
\contentsline {section}{\numberline {1}O dokumentu}{2}{section.1}%
\contentsline {section}{\numberline {2}Odvedená práce}{2}{section.2}%
\contentsline {subsection}{\numberline {2.1}Doména}{2}{subsection.2.1}%
\contentsline {subsection}{\numberline {2.2}Nové logo, favicon}{2}{subsection.2.2}%
\contentsline {subsection}{\numberline {2.3}Aplikace}{3}{subsection.2.3}%
\contentsline {subsubsection}{\numberline {2.3.1}Screen Lock}{3}{subsubsection.2.3.1}%
\contentsline {subsubsection}{\numberline {2.3.2}Vylepšení Lobby, Score, Návodu}{3}{subsubsection.2.3.2}%
\contentsline {subsubsection}{\numberline {2.3.3}Ukládání přezdívky}{4}{subsubsection.2.3.3}%
\contentsline {subsubsection}{\numberline {2.3.4}Klikání na Pianu}{4}{subsubsection.2.3.4}%
\contentsline {subsection}{\numberline {2.4}Server}{5}{subsection.2.4}%
\contentsline {subsubsection}{\numberline {2.4.1}Mapa odesílaná na Linky}{5}{subsubsection.2.4.1}%
\contentsline {section}{\numberline {3}Současný stav}{5}{section.3}%
\contentsline {section}{\numberline {4}Kód}{5}{section.4}%
