\BOOKMARK [1][-]{section.1}{\376\377\000O\000\040\000d\000o\000k\000u\000m\000e\000n\000t\000u}{}% 1
\BOOKMARK [1][-]{section.2}{\376\377\000V\000\375\000b\001\033\000r\000\040\000m\000i\000n\000i\000h\000r\000y\000\040\000z\000\040\000a\000n\000a\000l\000\375\000z\000y}{}% 2
\BOOKMARK [1][-]{section.3}{\376\377\000P\000o\000p\000i\000s\000\040\000m\000i\000n\000i\000h\000r\000y\000\040\000P\000i\000a\000n\000o}{}% 3
\BOOKMARK [2][-]{subsection.3.1}{\376\377\000Z\000o\000d\000p\000o\000v\001\033\000z\000e\000n\000\355\000\040\000n\000e\000j\000a\000s\000n\000o\000s\000t\000\355}{section.3}% 4
\BOOKMARK [2][-]{subsection.3.2}{\376\377\001\014\000a\000s\000o\000v\000\341\000\040\000n\000\341\000r\000o\001\015\000n\000o\000s\000t}{section.3}% 5
\BOOKMARK [1][-]{section.4}{\376\377\000A\000r\000c\000h\000i\000t\000e\000k\000t\000u\000r\000a\000\040\000h\000r\000y}{}% 6
\BOOKMARK [2][-]{subsection.4.1}{\376\377\000P\000o\001\015\000\355\000t\000\341\000n\000\355\000\040\000s\000c\000o\000r\000e}{section.4}% 7
\BOOKMARK [1][-]{section.5}{\376\377\000M\000o\000b\000i\000l\000n\000\355\000\040\000a\000p\000l\000i\000k\000a\000c\000e}{}% 8
\BOOKMARK [2][-]{subsection.5.1}{\376\377\000U\001\176\000i\000v\000a\000t\000e\000l\000s\000k\000\351\000\040\000r\000o\000z\000h\000r\000a\000n\000\355}{section.5}% 9
\BOOKMARK [3][-]{subsubsection.5.1.1}{\376\377\000M\000e\000n\000u}{subsection.5.1}% 10
\BOOKMARK [3][-]{subsubsection.5.1.2}{\376\377\000T\000u\000t\000o\000r\000i\000a\000l}{subsection.5.1}% 11
\BOOKMARK [3][-]{subsubsection.5.1.3}{\376\377\000L\000o\000b\000b\000y}{subsection.5.1}% 12
\BOOKMARK [3][-]{subsubsection.5.1.4}{\376\377\000G\000a\000m\000e}{subsection.5.1}% 13
\BOOKMARK [3][-]{subsubsection.5.1.5}{\376\377\000S\000c\000o\000r\000e}{subsection.5.1}% 14
\BOOKMARK [3][-]{subsubsection.5.1.6}{\376\377\000P\000o\000p\000U\000p}{subsection.5.1}% 15
\BOOKMARK [2][-]{subsection.5.2}{\376\377\000P\000o\001\015\000\355\000t\000\341\000n\000\355\000\040\000s\000c\000o\000r\000e\000\040\000v\000\040\000a\000p\000l\000i\000k\000a\000c\000i}{section.5}% 16
\BOOKMARK [2][-]{subsection.5.3}{\376\377\000K\000o\000m\000u\000n\000i\000k\000a\000c\000e\000\040\000s\000e\000\040\000s\000e\000r\000v\000e\000r\000e\000m}{section.5}% 17
\BOOKMARK [1][-]{section.6}{\376\377\000S\000e\000r\000v\000e\000r\000o\000v\000\341\000\040\000a\000p\000l\000i\000k\000a\000c\000e}{}% 18
\BOOKMARK [2][-]{subsection.6.1}{\376\377\000P\001\131\000i\000p\000o\000j\000e\000n\000\355\000\040\000d\000o\000\040\000h\000r\000y}{section.6}% 19
\BOOKMARK [2][-]{subsection.6.2}{\376\377\000V\000y\000g\000e\000n\000e\000r\000o\000v\000\341\000n\000\355\000\040\000h\000r\000y}{section.6}% 20
\BOOKMARK [2][-]{subsection.6.3}{\376\377\000V\000y\000g\000e\000n\000e\000r\000o\000v\000\341\000n\000\355\000\040\000a\000\040\000p\000o\000s\000l\000\341\000n\000\355\000\040\000o\000b\000r\000a\000z\000u}{section.6}% 21
