\babel@toc {czech}{}\relax 
\contentsline {figure}{\numberline {1}{\ignorespaces Spuštěná hra na Linkách\relax }}{4}{figure.caption.1}%
\contentsline {figure}{\numberline {2}{\ignorespaces Spuštěná hra v telefonu\relax }}{4}{figure.caption.2}%
\contentsline {figure}{\numberline {3}{\ignorespaces Nákres uživatelského rozhraní\relax }}{6}{figure.caption.3}%
